10000000000000000000000000000000 ' Out_fs From channel 0 to 31 Analog
00000000000000000000000000000000 ' Out_ssh_LG	From channel 0 to 31 Analog
00000000000000000000000000000000 ' PeakSensing_modeb_LG	From channel 0 to 31 Digital
00000000000000000000000000000000 ' Out_ssh_HG From channel 0 to 31 Analog
00000000000000000000000000000000 ' PeakSensing_modeb_HG	32 From channel 0 to 31 Digital
00 00 00 00 00 00 00 00 00 00 00 00 00 00 00 00 ' Out_PA_HG/Out_PA_LG	64 From channel 0 to 15 Analog 
00 00 00 00 00 00 00 00 00 00 00 00 00 00 00 00 ' Out_PA_HG/Out_PA_LG	64 From channel 16 to 31 Analog
